[gd_scene load_steps=3 format=2]

[ext_resource path="res://scripts/Grinder.gd" type="Script" id=1]
[ext_resource path="res://assets/grinder.png" type="Texture" id=2]

[node name="Grinder" type="Container"]

anchor_left = 0.0
anchor_top = 0.0
anchor_right = 0.0
anchor_bottom = 0.0
margin_right = 40.0
margin_bottom = 40.0
rect_pivot_offset = Vector2( 0, 0 )
rect_clip_content = false
mouse_filter = 0
mouse_default_cursor_shape = 0
size_flags_horizontal = 1
size_flags_vertical = 1
script = ExtResource( 1 )
_sections_unfolded = [ "Rect" ]

[node name="Sprite" type="Sprite" parent="." index="0"]

scale = Vector2( 0.1, 0.1 )
texture = ExtResource( 2 )
_sections_unfolded = [ "Transform" ]


