[gd_scene load_steps=3 format=2]

[ext_resource path="res://scripts/Tool.gd" type="Script" id=1]
[ext_resource path="res://assets/test.png" type="Texture" id=2]

[node name="Tool" type="Container" index="0"]

anchor_left = 0.0
anchor_top = 0.0
anchor_right = 0.0
anchor_bottom = 0.0
rect_pivot_offset = Vector2( 0, 0 )
rect_clip_content = false
mouse_filter = 0
mouse_default_cursor_shape = 6
size_flags_horizontal = 1
size_flags_vertical = 1
script = ExtResource( 1 )
_sections_unfolded = [ "Transform" ]

[node name="Sprite" type="Sprite" parent="." index="0"]

texture = ExtResource( 2 )


